﻿"SP_ID","NAME","ADDRESS","TELEPHONE"
100,"CATERING ROD","Max Regent St, 3",01632 960846
101,"LAUNDRY SMITH BROTHERS","Tourina St, 21",01632 960997
102,"ELECTRIC GSA","Meyer St, 7",01632 960123
104,"CATERING FER","Terra St, 2",01632 960882
105,"LAUNDRY LOW COST","Kamer St, 72",01632 961222
